/* XPM */
static char * toggleeven_xpm[] = {
"24 24 5 1",
" 	c None",
".	c #000000",
"+	c #786007",
"@	c #F1C10F",
"#	c #796108",
"                        ",
"           ............ ",
"           .+@@@@@@@@#. ",
"           .+@@@@@@@@#. ",
"           ............ ",
"                        ",
"                        ",
"      .... ............ ",
".... ...   .+@@@@@@@@#. ",
"  .....    .+@@@@@@@@#. ",
"   ..      ............ ",
"                        ",
"                        ",
"           ............ ",
"           .+@@@@@@@@#. ",
"           .+@@@@@@@@#. ",
"           ............ ",
"                        ",
"                        ",
"      .... ............ ",
".... ...   .+@@@@@@@@#. ",
"  .....    .+@@@@@@@@#. ",
"   ..      ............ ",
"                        "};
